<svg class="layer" width="100%" viewBox="0 0 1024 1024" version="1.1" xmlns="http://www.w3.org/2000/svg" xmlns:xlink="http://www.w3.org/1999/xlink">
    <style type="text/css" >
        <![CDATA[
            svg {
                overflow: visible !important;
            }
            a rect {
                stroke: blue;
                stroke-width: 3;
                stroke-opacity: 1;
                fill-opacity: 0.1;
            }
            rect {
                fill-opacity: 0;
            }
            rect:hover {
                fill-opacity: 0.3;
                stroke: red;
                stroke-width: 3;
                stroke-opacity: 1;
            }
            g:hover rect {
                fill-opacity: 0.3;
                stroke: red;
                stroke-width: 3;
                stroke-opacity: 1;
            }
        ]]>
    </style>
    <image width="1024" height="1024" id="layer" xlink:href="/explain/switch.png"></image>
    <!-- add explanation texts here -->
    <rect x="0" y="0" width="64" height="64" class="tooltip" title="<strong>Empty (0)</strong><br>Empty tile, used as an eraser in the map editor."></rect>
    <rect x="448" y="0" width="64" height="64" class="tooltip" title="<strong>Jump Count Setter (7)</strong><br>Sets the amount of jumps available to you (2 by default)."></rect>
    <g>
        <rect x="576" y="0" width="64" height="64" class="tooltip" title="<strong>Freeze (9)</strong><br>Freezes (stuns) for a couple of seconds (for 3 seconds by default)."></rect>
    </g>
    <g>
        <rect x="768" y="0" width="64" height="64" class="tooltip" title="<strong>Deep (12)</strong><br>Freezes (stuns) permanently, cancelled only by Undeep."></rect>
        <rect x="832" y="0" width="64" height="64" class="tooltip" title="<strong>Undeep (13)</strong><br>Cancels Deep freeze effect."></rect>
    </g>
    <g>
        <rect x="192" y="64" width="64" height="64" class="tooltip" title="<strong>Hit Others On (19)</strong><br>Enables hitting others with weapons."></rect>
        <rect x="256" y="64" width="64" height="64" class="tooltip" title="<strong>Hit Others Off (20)</strong><br>Disables hitting others with weapons."></rect>
    </g>
    <g>
        <rect x="384" y="64" width="64" height="64" class="tooltip" title="<strong>Timed Switch Activator (22)</strong><br>Activates switch for a set time (e.g. temporarily activates laser door)."></rect>
        <rect x="512" y="64" width="64" height="64" class="tooltip" title="<strong>Switch Activator (24)</strong><br>Activates switch (e.g. activates laser door)"></rect>
        <rect x="576" y="64" width="64" height="64" class="tooltip" title="<strong>Switch Deactivator (25)</strong><br>Deactivates switch (e.g. deactivates laser door)"></rect>
        <rect x="448" y="64" width="64" height="64" class="tooltip" title="<strong>Timed Switch Deactivator (23)</strong><br>Deactivates switch for a set time (e.g. temporarily deactivates laser door)."></rect>
    </g>
    <g>
        <rect x="960" y="320" width="64" height="64" class="tooltip" title="<strong>Time Bonus (95)</strong><br>Subtracts a set amount of seconds off your timer."></rect>
        <rect x="960" y="256" width="64" height="64" class="tooltip" title="<strong>Time Penalty (79)</strong><br>Adds a set amount of seconds to your timer."></rect>
    </g>
    <g>
        <rect x="128" y="384" width="64" height="64" class="tooltip" title="<strong>Evil Teleporter Gun Block (98)</strong><br>Can be teleported with teleporter guns, tees lose their speed on teleporting."></rect>
        <rect x="192" y="384" width="64" height="64" class="tooltip" title="<strong>Teleporter Gun Block (99)</strong><br>Can be teleported to with teleporter guns, tees keep their speed on teleporting."></rect>
    </g>
    <rect x="768" y="512" width="256" height="128" class="tooltip" title="<strong>Credits (140)</strong><br>Designer of the entities."></rect>
    <g>
        <rect x="320" y="768" width="64" height="64" class="tooltip" title="<strong>Shield (197)</strong><br>Removes all weapons (except for hammer and pistol)."></rect>
        <rect x="384" y="768" width="64" height="64" class="tooltip" title="<strong>Heart (198)</strong><br>Freezes (stuns) for 3 seconds."></rect>
    </g>
    <g>
        <a xlink:href="/weapons/grenade/">
            <rect x="512" y="768" width="64" height="64" class="tooltip" title="<strong>Grenade Launcher (200)</strong><br>Weapon, shoots exploding projectile in an arc."></rect>
        </a>
        <a xlink:href="/weapons/ninja/">
            <rect x="576" y="768" width="64" height="64" class="tooltip" title="<strong>Ninja (201)</strong><br>Weapon, lasts 15 seconds at max, allows you to dash, you can't use other weapons while you have Ninja."></rect>
        </a>
        <a xlink:href="/weapons/laser/">
            <rect x="640" y="768" width="64" height="64" class="tooltip" title="<strong>Laser (202)</strong><br>Weapon, shoots beam that bounces off walls and unfreezes the first tee it hits."></rect>
        </a>
        <a xlink:href="/weapons/shotgun/">
            <rect x="448" y="768" width="64" height="64" class="tooltip" title="<strong>Shotgun (199)</strong><br>Weapon, shoots beam that bounces off walls and pulls the first tee it hits."></rect>
        </a>
    </g>
    <g>
        <rect x="704" y="768" width="64" height="64" class="tooltip" title="<strong>Counterclockwise, Fast Rotating Freezing Laser (203)</strong><br>Center of a continuous laser beam that freezes tees and rotates counterclockwise."></rect>
        <rect x="768" y="768" width="64" height="64" class="tooltip" title="<strong>Counterclockwise, Normal Rotating Freezing Laser (204)</strong><br>Center of a continuous laser beam that freezes tees and rotates counterclockwise."></rect>
        <rect x="832" y="768" width="64" height="64" class="tooltip" title="<strong>Counterclockwise, Slow Rotating Freezing Laser (205)</strong><br>Center of a continuous laser beam that freezes tees and rotates counterclockwise."></rect>
    </g>
    <g>
        <rect x="896" y="768" width="64" height="64" class="tooltip" title="<strong>Static Freezing Laser (206)</strong><br>Continuous laser beam that freezes tees."></rect>
    </g>
    <g>
        <rect x="0" y="832" width="64" height="64" class="tooltip" title="<strong>Clockwise, Normal Rotating Freezing Laser (208)</strong><br>Center of a continuous laser beam that freezes tees and rotates clockwise."></rect>
        <rect x="64" y="832" width="64" height="64" class="tooltip" title="<strong>Clockwise, Fast Rotating Freezing Laser (209)</strong><br>Center of a continuous laser beam that freezes tees and rotates clockwise."></rect>
        <rect x="960" y="768" width="64" height="64" class="tooltip" title="<strong>Clockwise, Slow Rotating Freezing Laser (207)</strong><br>Center of a continuous laser beam that freezes tees and rotates clockwise."></rect>
    </g>
    <g>
        <rect x="128" y="832" width="64" height="64" class="tooltip" title="<strong>Laser Length Setter (210)</strong><br>Sets the length of a laser door or rotating laser to 3 tiles."></rect>
        <rect x="192" y="832" width="64" height="64" class="tooltip" title="<strong>Laser Length Setter (211)</strong><br>Sets the length of a laser door or rotating laser to 6 tiles."></rect>
        <rect x="256" y="832" width="64" height="64" class="tooltip" title="<strong>Laser Length Setter (212)</strong><br>Sets the length of a laser door or rotating laser to 9 tiles."></rect>
    </g>
    <g>
        <rect x="320" y="832" width="64" height="64" class="tooltip" title="<strong>Slow Laser Lengthener (213)</strong><br>Causes laser length to lengthen and shorten, doesn't work wit laser doors."></rect>
        <rect x="384" y="832" width="64" height="64" class="tooltip" title="<strong>Normal Laser Lengthener (214)</strong><br>Causes laser length to lengthen and shorten, doesn't work wit laser doors."></rect>
        <rect x="448" y="832" width="64" height="64" class="tooltip" title="<strong>Fast Laser Lengthener (215)</strong><br>Causes laser length to lengthen and shorten, doesn't work wit laser doors."></rect>
    </g>
    <g>
        <rect x="512" y="832" width="64" height="64" class="tooltip" title="<strong>Slow Laser Length Changer (216)</strong><br>Causes laser length to shorten and lengthen, doesn't work wit laser doors."></rect>
        <rect x="576" y="832" width="64" height="64" class="tooltip" title="<strong>Normal Laser Length Changer (217)</strong><br>Causes laser length to shorten and lengthen, doesn't work wit laser doors."></rect>
        <rect x="640" y="832" width="64" height="64" class="tooltip" title="<strong>Fast Laser Length Changer (218)</strong><br>Causes laser length to shorten and lengthen, doesn't work wit laser doors."></rect>
    </g>
    <g>
        <rect x="768" y="832" width="64" height="64" class="tooltip" title="<strong>Explosion Turret (220)</strong><br>Locks onto the nearest tee and shoots projectiles at it that explode. Doesn't work through walls and turret blocker tiles."></rect>
        <rect x="832" y="832" width="64" height="64" class="tooltip" title="<strong>Freeze Turret (221)</strong><br>Locks onto the nearest tee and shoots projectiles at it that freeze for 3 seconds. Doesn't work through walls and turret blocker tiles."></rect>
        <rect x="896" y="832" width="64" height="64" class="tooltip" title="<strong>Freeze Explosion Turret (222)</strong><br>Locks onto the nearest tee and shoots projectiles at it that explode and freeze for 3 seconds. Doesn't work through walls and turret blocker tiles."></rect>
        <rect x="960" y="832" width="64" height="64" class="tooltip" title="<strong>Unfreeze Turret (223)</strong><br>Locks onto the nearest tee and shoots projectiles at it that unfreezes. Doesn't work through walls and turret blocker tiles."></rect>
    </g>
    <g>
        <rect x="0" y="896" width="64" height="64" class="tooltip" title="<strong>Exploding Bullet (224)</strong><br>Moving projectile that freezes it hits and explodes when bouncing off walls."></rect>
        <rect x="64" y="896" width="64" height="64" class="tooltip" title="<strong>Bullet (225)</strong><br>Moving projectile that freezes it hits and bounces off walls."></rect>
    </g>
    <g>
        <rect x="576" y="896" width="64" height="64" class="tooltip" title="<strong>Slow Dragger (233)</strong><br>Locks onto closest tee and drags it until it is out of sight again, blocked by walls and dragger blocker tiles."></rect>
        <rect x="640" y="896" width="64" height="64" class="tooltip" title="<strong>Normal Dragger (234)</strong><br>Locks onto closest tee and drags it until it is out of sight again, blocked by walls and dragger blocker tiles."></rect>
        <rect x="704" y="896" width="64" height="64" class="tooltip" title="<strong>Fast Dragger (235)</strong><br>Locks onto closest tee and drags it until it is out of sight again, blocked by walls and dragger blocker tiles."></rect>
    </g>
    <g>
        <rect x="768" y="896" width="64" height="64" class="tooltip" title="<strong>Slow Hookthrough Dragger (236)</strong><br>Locks onto closest tee and drags it until it is out of sight again, blocked only by dragger blocker tiles."></rect>
        <rect x="832" y="896" width="64" height="64" class="tooltip" title="<strong>Normal Hookthrough Dragger (237)</strong><br>Locks onto closest tee and drags it until it is out of sight again, blocked only by dragger blocker tiles."></rect>
        <rect x="896" y="896" width="64" height="64" class="tooltip" title="<strong>Fast Hookthrough Dragger (238)</strong><br>Locks onto closest tee and drags it until it is out of sight again, blocked only by dragger blocker tiles."></rect>
    </g>
    <rect x="0" y="960" width="64" height="64" class="tooltip" title="<strong>Laser Door (240)</strong><br>Doesn't let tees through, controlled by switches and works like a row of stopper tiles."></rect>

</svg>
